<svg width="10" height="7" viewBox="0 0 10 7" fill="none" xmlns="http://www.w3.org/2000/svg">
<path d="M3.34416 5.1042L1.83048 3.70357L1 4.47392L2.99642 6.32123L2.99847 6.31934L3.36257 6.65625L9 1.44174L8.15111 0.65625L3.34416 5.1042Z" fill="#20CE98" stroke="#20CE98" stroke-width="0.5"/>
</svg>
